854832 152695 525
717396 762059 424
397926 415712 449
982694 578936 525
179958 761114 509
579044 291982 470
431633 586189 470
807314 39604 509
350498 858566 525
810241 278228 509
434007 285997 449
63610 353586 443
117423 984520 525
856669 278901 525
60652 916797 525
840112 21216 525
591876 196722 470
153997 349782 443
246564 958480 525
848987 26754 525
211443 972777 525
782185 602452 509
715027 181892 509
165394 235017 443
987888 545711 525
391077 762855 509
522211 139693 470
68038 613209 470
961366 485295 525
174440 570056 470
256367 370803 441
11590 752329 509
813051 852396 525
853637 218420 525
771746 696103 504
314009 505194 449
926251 411605 525
282360 859014 525
892988 531375 525
73314 893617 525
876339 528669 525
258850 24614 443
651627 307420 509
581854 24002 470
825140 947650 525
210679 844859 525
662075 798080 504
852451 751817 525
723032 333417 509
517804 901059 525
296425 693712 509
569705 845777 525
549707 694430 509
35128 803180 509
383877 268360 441
834728 173358 509
43481 883438 525
661025 448114 509
907733 365961 525
362005 491 443
407071 842531 525
323193 676003 509
665516 649073 442
807048 207092 509
798963 433501 509
257265 507062 449
536447 311607 470
721951 311501 509
193734 182647 360
809507 968061 525
241138 719199 509
764783 958067 525
471915 305434 449
445667 585229 470
910308 525931 525
240222 262854 368
33393 373252 443
671907 312554 509
314455 249902 407
475671 626849 509
539125 583601 452
590720 11580 470
111883 226291 386
115741 296245 443
514676 627795 509
667960 28173 509
513540 247359 470
657436 688763 442
666056 479536 509
609094 563928 434
244344 734424 509
719354 62485 509
845123 670056 525
237886 150613 443
870749 225893 525
504993 749793 509
960618 815170 525
406567 802486 509
44975 295688 443
628527 890678 525
880570 730875 525
52461 674919 509
565631 994677 525
434024 491541 444
896950 765667 525
823316 397344 509
910101 489434 525
925108 442507 525
116973 711027 509
743934 425080 509
106932 761538 509
97683 528075 470
978354 693849 525
513598 826643 509
877488 416292 525
503090 776389 509
388692 372200 423
602679 359744 470
850758 12934 525
162387 453052 449
423150 952480 525
868130 373522 525
183269 226755 386
984731 790491 525
742961 738726 424
776910 51866 509
919158 970099 507
809760 380639 509
705608 153066 509
85589 382777 443
541023 40859 470
511727 797149 509
162594 629580 509
626550 13171 509
573990 891498 525
741110 829561 468
360190 183184 443
464243 835770 509
591763 857551 525
472306 489084 413
403561 468589 449
539394 168091 470
889695 231522 525
19028 832375 509
825668 77145 509
353493 455751 449
230976 283906 407
282134 5200 443
120324 228095 386
497195 463897 426
418195 185208 449
412374 178642 449
249744 336863 407
644395 856501 525
875759 923432 476
151067 108163 375
597584 310872 470
67081 878761 525
258555 993324 525
77410 450729 449
780659 556043 509
470788 702616 509
420616 732662 509
250271 415381 449
525038 999969 525
72137 383311 443
438913 60066 449
316456 203626 443
822101 619801 509
651596 412835 509
306129 124827 443
401387 13500 443
119876 545990 470
481076 175629 449
992992 240018 525
487903 840389 525
906200 983904 507
96771 515373 470
635766 629677 416
913361 484045 525
344824 713870 509
863634 37104 525
948984 515482 525
703015 166860 509
141564 259789 443
189139 766719 509
452698 593743 470
640038 591619 509
691400 313109 509
80806 751349 509
829368 775401 468
320603 863117 525
758678 197634 509
782204 676524 504
582858 529126 452
883966 356096 525
532005 16760 470
523228 74605 470
622844 367903 470
565991 876605 525
